-------------------------------------------------------------------------------
firt	last	ID	att hw1 hw2 hw3 hw4 hw5 hw6 T1  T2  T3 Quiz Score Grade
-------------------------------------------------------------------------------
cat     Dog     000001  80  90  80  90  90  100 99  90  89  99  100 
Bat     Hog     000002  81  97  92  78  89  98  80  99  88  97  100 
Tag     Tug     000003  67  92  90  50  70  100 79  90  99  94  87  
Fat     What    000004  84  57  72  68  99  78  60  89  96  90  68  
Hat     Where   000005  85  60  90  80  70  100 99  90  99  92  87  
Tat     Who     000006  86  96  92  88  89  78  90  79  96  90  68  
Jose    Jones   000007  90  93  50  70  90  100 99  90  99  93  90  
Jane    Smith   000008  71  87  72  68  89  98  90  89  96  80  68  
John    Hill    000009  70  60  90  90  90  100 99  60  86  89  87  
Ann     Tor     000010  89  57  72  68  89  98  90  89  87  80  89  
Anna    Why     000011  88  99  80  50  80  100 79  80  79  89  96  
Ben     Good    000012  86  99  82  68  89  98  70  99  66  97  98  
Benny   C++     000013  70  99  80  90  80  100 69  80  99  93  87  
Will    PC      000014  91  99  92  68  89  78  80  99  96  96  99  
Willy   Guess   000015  50  94  80  50  70  100 69  60  80  79  87  
Cath    Fun     000016  41  94  92  98  89  98  80  89  87  60  68  
Cathy   Now     000017  86  90  80  50  80  100 69  80  89  89  87  
Dash    Road    000018  71  95  88  68  89  78  90  89  96  90  68  
David   Texas   000019  60  95  80  90  70  100 99  90  79  99  89  
Eric    McAllen 000020  89  87  92  68  89  98  90  89  86  90  88  
Eerika  Edwin   000021  87  80  96  50  70  100 79  90  89  89  87  
Frank   Wired   000022  71  87  82  88  99  78  90  69  86  66  68  
Ford    Joker   000023  90  80  90  50  90  100 89  90  89  99  87  
Greg    Wind    000024  21  77  87  68  99  98  60  99  89  90  68  
George  Pang    000025  40  70  90  50  90  100 99  90  99  99  45  
Hush    Ting    000026  87  97  82  98  99  88  60  99  96  90  68  
Hate    Pada    000027  60  90  80  50  90  100 79  77  99  99  55  
Isee    Radar   000028  87  97  82  68  89  78  60  90  96  70  68  
Irish   Web     000029  83  70  90  90  90  100 99  70  89  89  87  
Jeb     Food    000030  86  98  88  68  89  68  80  99  86  50  97  
Joke    Webster 000031  89  91  90  50  70  100 89  70  89  89  84  
Kurt    Lane    000032  91  90  92  98  99  78  80  89  80  98  88  
Kevin   City    000033  71  96  92  68  89  98  90  90  96  95  98  
Larry   Games   000034  84  80  92  90  70  100 99  70  89  99  87  
lucky   Park    021345  61  100 99  98  99  98  90  99  86  99  98  
