3 12
9 8 7.5 8 1.5 8 1.5 3.5
0 5 9 5
4 2 8 2 5 7 2 7 10 6 8 6 8 7 8 4
1 9 8 9
9 3 7 3 4 10 4 5
4 2 4 4 5 8 5 7 3 6 6 6 0 3 3 3 5 1 5 3
4 12
-50 -5 50 -5 0 10 0 -10 50 5 -50 5 -50 0 50 0
4 2 8 2 5 7 2 7 10 6 8 6 8 7 8 4
1 9 8 9
9 3 7 3 4 10 4 5
4 2 4 4 5 8 5 7 3 6 6 6 0 3 3 3 5 1 5 3
0 0