^C:\USERS\MNIGHT08\DESKTOP\CODE\C++\OPEN GL TOYING\OPEN GL TOYING\DEBUG\OPEN GL TOYING.EXE.EMBED.MANIFEST.RES|C:\USERS\MNIGHT08\DESKTOP\CODE\C++\OPEN GL TOYING\OPEN GL TOYING\DEBUG\OPEN GL TOYING.OBJ|C:\USERS\MNIGHT08\DESKTOP\CODE\C++\OPEN GL TOYING\OPEN GL TOYING\DEBUG\OPEN GL TOYING.RES|C:\USERS\MNIGHT08\DESKTOP\CODE\C++\OPEN GL TOYING\OPEN GL TOYING\DEBUG\STDAFX.OBJ
/ERRORREPORT:PROMPT /OUT:"C:\Users\mnight08\Desktop\code\c++\open gl toying\Debug\open gl toying.exe" /INCREMENTAL /NOLOGO kernel32.lib user32.lib gdi32.lib winspool.lib comdlg32.lib advapi32.lib shell32.lib ole32.lib oleaut32.lib uuid.lib odbc32.lib odbccp32.lib opengl32.lib glut32.lib kernel32.lib user32.lib gdi32.lib winspool.lib comdlg32.lib advapi32.lib shell32.lib ole32.lib oleaut32.lib uuid.lib odbc32.lib odbccp32.lib /MANIFEST /ManifestFile:"Debug\open gl toying.exe.intermediate.manifest" /MANIFESTUAC:"level='asInvoker' uiAccess='false'" /DEBUG /PDB:"C:\Users\mnight08\Desktop\code\c++\open gl toying\Debug\open gl toying.pdb" /SUBSYSTEM:WINDOWS /TLBID:1 /DYNAMICBASE /NXCOMPAT /IMPLIB:"C:\Users\mnight08\Desktop\code\c++\open gl toying\Debug\open gl toying.lib" /MACHINE:X86 "Debug\open gl toying.res"
"Debug\open gl toying.exe.embed.manifest.res"
"Debug\open gl toying.obj"
Debug\stdafx.obj
