^C:\USERS\MNIGHT08\DESKTOP\CODE\C++\OPEN GL TOYING\OPEN GL TOYING\DEBUG\OPEN GL TOYING.EXE.EMBED.MANIFEST.RES|C:\USERS\MNIGHT08\DESKTOP\CODE\C++\OPEN GL TOYING\OPEN GL TOYING\DEBUG\OPEN GL TOYING.OBJ|C:\USERS\MNIGHT08\DESKTOP\CODE\C++\OPEN GL TOYING\OPEN GL TOYING\DEBUG\OPEN GL TOYING.RES|C:\USERS\MNIGHT08\DESKTOP\CODE\C++\OPEN GL TOYING\OPEN GL TOYING\DEBUG\STDAFX.OBJ
C:\PROGRAM FILES (X86)\MICROSOFT SDKS\WINDOWS\V7.0A\LIB\KERNEL32.LIB
C:\PROGRAM FILES (X86)\MICROSOFT SDKS\WINDOWS\V7.0A\LIB\USER32.LIB
C:\PROGRAM FILES (X86)\MICROSOFT SDKS\WINDOWS\V7.0A\LIB\GDI32.LIB
C:\PROGRAM FILES (X86)\MICROSOFT SDKS\WINDOWS\V7.0A\LIB\WINSPOOL.LIB
C:\PROGRAM FILES (X86)\MICROSOFT SDKS\WINDOWS\V7.0A\LIB\COMDLG32.LIB
C:\PROGRAM FILES (X86)\MICROSOFT SDKS\WINDOWS\V7.0A\LIB\ADVAPI32.LIB
C:\PROGRAM FILES (X86)\MICROSOFT SDKS\WINDOWS\V7.0A\LIB\SHELL32.LIB
C:\PROGRAM FILES (X86)\MICROSOFT SDKS\WINDOWS\V7.0A\LIB\OLE32.LIB
C:\PROGRAM FILES (X86)\MICROSOFT SDKS\WINDOWS\V7.0A\LIB\OLEAUT32.LIB
C:\PROGRAM FILES (X86)\MICROSOFT SDKS\WINDOWS\V7.0A\LIB\UUID.LIB
C:\PROGRAM FILES (X86)\MICROSOFT SDKS\WINDOWS\V7.0A\LIB\ODBC32.LIB
C:\PROGRAM FILES (X86)\MICROSOFT SDKS\WINDOWS\V7.0A\LIB\ODBCCP32.LIB
C:\PROGRAM FILES (X86)\MICROSOFT SDKS\WINDOWS\V7.0A\LIB\OPENGL32.LIB
C:\PROGRAM FILES (X86)\MICROSOFT VISUAL STUDIO 10.0\VC\LIB\GLUT32.LIB
C:\USERS\MNIGHT08\DESKTOP\CODE\C++\OPEN GL TOYING\OPEN GL TOYING\DEBUG\OPEN GL TOYING.RES
C:\USERS\MNIGHT08\DESKTOP\CODE\C++\OPEN GL TOYING\OPEN GL TOYING\DEBUG\OPEN GL TOYING.EXE.EMBED.MANIFEST.RES
C:\USERS\MNIGHT08\DESKTOP\CODE\C++\OPEN GL TOYING\OPEN GL TOYING\DEBUG\OPEN GL TOYING.OBJ
C:\USERS\MNIGHT08\DESKTOP\CODE\C++\OPEN GL TOYING\OPEN GL TOYING\DEBUG\STDAFX.OBJ
C:\WINDOWS\SYSTEM32\TZRES.DLL
C:\USERS\MNIGHT08\DESKTOP\CODE\C++\OPEN GL TOYING\DEBUG\OPEN GL TOYING.EXE
C:\USERS\MNIGHT08\DESKTOP\CODE\C++\OPEN GL TOYING\DEBUG\OPEN GL TOYING.PDB
C:\PROGRAM FILES (X86)\MICROSOFT VISUAL STUDIO 10.0\VC\LIB\MSVCRTD.LIB
C:\PROGRAM FILES (X86)\MICROSOFT VISUAL STUDIO 10.0\VC\LIB\OLDNAMES.LIB
C:\PROGRAM FILES (X86)\MICROSOFT VISUAL STUDIO 10.0\VC\BIN\CVTRES.EXE
C:\WINDOWS\SYSTEM32\RSAENH.DLL
C:\WINDOWS\SYSTEM32\CRYPT32.DLL
